{
    "facebook_url_params": "t=Boty",
    "whatsap_url_params": "text=Aloha People Club->>",
    "twitter_url_params": "text=Aloha%20People%20Club%20&",
    "media_costs_phrase": {
        "es": "Descubrir lo que te ha enviado te costará ",
        "en": "Invite to "
    },
    "buy_image": "https://res.cloudinary.com/btygrd/image/upload/v1537288763/resources/Stripe_logo.png",
    "sell_image" : "https://res.cloudinary.com/btygrd/image/upload/v1537289357/resources/paypal-900x506.png",
    "share_pic_url" : "https://res.cloudinary.com/btygrd/image/upload/v1551890113/resources/Aloha_119.jpg",
    "spotifyListLink" : "https://open.spotify.com/user/1286544262/playlist/31lxxIDyC3qYrtH6TpGFwx?si=VxHq6YKRRzWZcWFRwyzWew",
    "typingOnTime" : 100,
    "typingOffTime" : 3250,
    
    "image_cost": 1,
    "audio_cost": 2,
    "video_cost": 3,
    "location_cost": 4,
    "tutorial": {
       "es" : ["Pulsa TALK para empezar una conversación, recibirás el perfil de Facebook de la persona con la que hablas", "Si no habláis el mismo idioma, verás unas banderas y Lola traducirá la conversación, escribe frases completas.", "Recibirás mojitos en tu cuenta cuando envíes fotos o videos y los vea la otra persona. Mira el video de ejemplo","https://res.cloudinary.com/btygrd/video/upload/v1553074578/resources/Aloha_Video.mp4|https://res.cloudinary.com/btygrd/image/upload/v1545394341/resources/voicemail.png"],
       "en" : ["Pulsa TALK para empezar una conversación, recibirás el perfil de Facebook de la persona con la que hablas", "Si no habláis el mismo idioma, verás unas banderas y Lola traducirá la conversación, escribe frases completas.", "Recibirás mojitos en tu cuenta cuando envíes fotos o videos y los vea la otra persona. Mira el video de ejemplo","https://res.cloudinary.com/btygrd/video/upload/v1553074578/resources/Aloha_Video.mp4|https://res.cloudinary.com/btygrd/image/upload/v1545394341/resources/voicemail.png"]
    },
    "referral_reward": 10, 
    "referee_reward": 50,
    "onboard_reward": 50,
    "referral_bucket": "default",
    "minimum_credit_to_sell": 500,
    "number_of_referrals_limit":10,
    
    
    "url_to_share" : "https://messenger.alohapeople.club",
    "onboarding2_limit_time" : 2,
    "chatting_limit_time" : 5,
    "chatting_notification_time": 4,
    
    "allow_chat_same_sex": "false",
    
    "open_time" : "00:00",
    "close_time" : "23:59",
    
    "time_to_join_same_sex_persons" : 30,
    
    "roses_recharged" : 50,
    
    "expanding_chat_cost" : 20,
    "expanding_chat_reward" : 10,
    
    "add_name_to_pic_transformation": "https://res.cloudinary.com/btygrd/image/upload/w_573,h_600,c_fill,g_auto/l_black_bar,w_1.0,h_0.11,fl_relative,o_60,g_south/l_text:Comfortaa_40:{{{first_name}}},co_white,g_south_west,x_85,y_15/l_fetch:{{{base64_flag}}},g_south_west,x_10,y_0/",


    "pixelated_button_text": "👉▶🤩"
    ,
   "menu":{
        "es" : 
        {
        "not_yet_geolocated": 
          [
              {
                  "title":"{{first_name}}, tienes {{roses}} mojito💲, ¿te unes a la acción? 👇 TALK",
                  "image_url":"https://res.cloudinary.com/btygrd/image/upload/v1550146399/resources/TALK.jpg",
                   "action_type" : "template",
                  "subtitle":"Síguenos en Facebook para ser VIP en Aloha People Club 🥇",
                  "default_action": {
                    "type": "web_url",
                    "url": "https://www.facebook.com/AlohaPeopleClub",
                    "webview_height_ratio": "tall"
                  },
                  "buttons":[
                    {
                      "type":"web_url",
                      "title":"TALK.",
                      "url":"https://messenger.alohapeople.club?lambdaVersion=development",
                      "webview_height_ratio": "tall"
                    },
                    {
                      "type":"web_url",
                      "title":"SIGUENOS EN FB",
                      "url":"https://www.facebook.com/AlohaPeopleClub/",
                      "webview_height_ratio": "tall"
                    },
                    {
                      "type":"web_url",
                      "title":"ESCUCHA AL DJ",
                      "url":"https://open.spotify.com/user/henessy.purewhite/playlist/3jfIZ3Ep7hoakj9pzKDthd?si=CFVFtCZ6TUGWfxTOSgmYhg",
                      "webview_height_ratio": "tall"
                    }
                  ]      
              },
              {
                  "title":"Fomentamos el consumo responsable, si tienes 500 mojito💲 cámbialos por 50€",
                  "image_url":"https://res.cloudinary.com/btygrd/image/upload/v1550146399/resources/SELL.jpg",
                   "action_type" : "template",
                  "subtitle":"¿No tienes mojitos en tu cuenta? No hay problema, compra 50 mojito💲 por 5€",
                  "default_action": {
                    "type": "web_url",
                    "url": "https://www.facebook.com/AlohaPeopleClub",
                    "webview_height_ratio": "tall"
                  },
                  "buttons":[
                    {
                      "type":"web_url",
                      "title":"GANA 50€",
                      "url":"{{{paypal_url}}}",
                    "webview_height_ratio": "tall"
                    },
                    {
                      "type":"web_url",
                      "title":"COMPRA 50 MOJITO💲",
                      "url":"{{{stripe_url}}}",
                      "webview_height_ratio": "tall"
                    }       
                  ]      
              },
              {
                "title" : "Comparte ALOHA por Messenger, Facebook o WhatsApp y gana mojito💲",
                "subtitle" : "Invita hasta 10 amigos y gana 10🍸 por cada uno que se una por primera vez",
                "image_url" : "https://res.cloudinary.com/btygrd/image/upload/v1550146400/resources/SHARE.jpg",
                "action_type" : "template",
                "buttons": 
                [
                  {
                    "type": "element_share",
                    "share_contents": {
                      "attachment": {
                        "type": "template",
                        "payload": {
                          "template_type": "generic",
                          "elements": 
                          [
                            {
                              "title":"¿Nos vemos en Aloha People Club?",
                              "subtitle":"Te he dejado 50 mojito💲 en tu cuenta para que conozcas a gente",
                              "image_url":"https://res.cloudinary.com/btygrd/image/upload/v1537529745/resources/Aloha_icon.jpg",
                              "buttons":
                              [
                                {
                                  "type":"web_url",
                                  "title":"MESSENGER",
                                  "url":"{{{msn_branch_url}}}",
                                  "webview_height_ratio": "tall"
                                }
                              ]
                            }
                          ]
                        }
                      }
                    }
                  },
                 {
                      "type":"web_url",
                      "title":"FACEBOOK",
                      "url":"{{{fb_branch_url}}}",
                      "webview_height_ratio": "tall"
                  },
                 {
                      "type":"web_url",
                      "title":"WHATSAPP",
                      "url":"{{{wh_branch_url}}}",
                      "webview_height_ratio": "tall"
                  }       
                ]
              }
          ],
        "already_geolocated": 
          [
              {
                  "title":"{{first_name}}, tienes {{roses}} mojito💲, ¿te unes a la acción? 👇 TALK",
                  "image_url":"https://res.cloudinary.com/btygrd/image/upload/v1550146399/resources/TALK.jpg",
                   "action_type" : "template",
                  "subtitle":"Síguenos en Facebook para ser VIP en Aloha People Club 🥇",
                  "default_action": {
                    "type": "web_url",
                    "url": "https://www.facebook.com/AlohaPeopleClub",
                    "webview_height_ratio": "tall"
                  },
                  "buttons":[
                    {
                      "type":"postback",
                      "title":"TALK",
                      "payload":"TALK"
                    },
                                        {
                      "type":"web_url",
                      "title":"SIGUENOS EN FB",
                      "url":"https://www.facebook.com/AlohaPeopleClub/",
                      "webview_height_ratio": "tall"
                    },
                    {
                      "type":"web_url",
                      "title":"ESCUCHA AL DJ",
                      "url":"https://open.spotify.com/user/henessy.purewhite/playlist/3jfIZ3Ep7hoakj9pzKDthd?si=CFVFtCZ6TUGWfxTOSgmYhg",
                      "webview_height_ratio": "tall"
                    }
                  ]      
              },
              {
                  "title":"Fomentamos el consumo responsable, si tienes 500 mojito💲 cámbialos por 50€",
                  "image_url":"https://res.cloudinary.com/btygrd/image/upload/v1550146399/resources/SELL.jpg",
                   "action_type" : "template",
                  "subtitle":"¿No tienes mojitos en tu cuenta? No hay problema, compra 50 mojito💲 por 5€",
                  "default_action": {
                    "type": "web_url",
                    "url": "https://www.facebook.com/AlohaPeopleClub",
                    "webview_height_ratio": "tall"
                  },
                  "buttons":[
                    {
                      "type":"web_url",
                      "title":"GANA 50€",
                      "url":"{{{paypal_url}}}",
                    "webview_height_ratio": "tall"
                    },
                    {
                      "type":"web_url",
                      "title":"COMPRA 50 MOJITO💲",
                      "url":"{{{stripe_url}}}",
                      "webview_height_ratio": "tall"
                    }        
                  ]      
              },
              {
                "title" : "Comparte ALOHA por Messenger, Facebook o WhatsApp y gana mojito💲",
                "subtitle" : "Invita hasta 10 amigos y gana 10🍸 por cada uno que se una por primera vez",
                "image_url" : "https://res.cloudinary.com/btygrd/image/upload/v1550146400/resources/SHARE.jpg",
                "action_type" : "template",
                "buttons": 
                [
                  {
                    "type": "element_share",
                    "share_contents": {
                      "attachment": {
                        "type": "template",
                        "payload": {
                          "template_type": "generic",
                          "elements": 
                          [
                            {
                              "title":"¿Nos vemos en Aloha People Club?",
                              "subtitle":"Te he dejado 50 mojito💲 en tu cuenta para que conozcas a gente",
                              "image_url":"https://res.cloudinary.com/btygrd/image/upload/v1537529745/resources/Aloha_icon.jpg",
                              "buttons":
                              [
                                {
                                  "type":"web_url",
                                  "title":"MESSENGER",
                                  "url":"{{{msn_branch_url}}}"
                                }
                              ]
                            }
                          ]
                        }
                      }
                    }
                  },
                 {
                      "type":"web_url",
                      "title":"FACEBOOK",
                      "url":"{{{fb_branch_url}}}",
                      "webview_height_ratio": "tall"
                  },
                 {
                      "type":"web_url",
                      "title":"WHATSAPP",
                      "url":"{{{wh_branch_url}}}",
                      "webview_height_ratio": "tall"
                  }        
                ]
              }
          ]
        },
         "en" : 
        {
        "not_yet_geolocated": 
          [
              {
                  "title":"{{first_name}}, tienes {{roses}} mojito💲, ¿te unes a la acción? 👇 TALK",
                  "image_url":"https://res.cloudinary.com/btygrd/image/upload/v1550146399/resources/TALK.jpg",
                   "action_type" : "template",
                  "subtitle":"Síguenos en Facebook para ser VIP en Aloha People Club 🥇",
                  "default_action": {
                    "type": "web_url",
                    "url": "https://www.facebook.com/AlohaPeopleClub",
                    "webview_height_ratio": "tall"
                  },
                  "buttons":[
                    {
                      "type":"web_url",
                      "title":"TALK.",
                      "url":"https://messenger.alohapeople.club?lambdaVersion=development",
                      "webview_height_ratio": "tall"
                    },
                    {
                      "type":"web_url",
                      "title":"SIGUENOS EN FB",
                      "url":"https://www.facebook.com/AlohaPeopleClub/",
                      "webview_height_ratio": "tall"
                    },
                    {
                      "type":"web_url",
                      "title":"ESCUCHA AL DJ",
                      "url":"https://open.spotify.com/user/henessy.purewhite/playlist/3jfIZ3Ep7hoakj9pzKDthd?si=CFVFtCZ6TUGWfxTOSgmYhg",
                      "webview_height_ratio": "tall"
                    }
                  ]      
              },
              {
                  "title":"Fomentamos el consumo responsable, si tienes 500 mojito💲 cámbialos por 50€",
                  "image_url":"https://res.cloudinary.com/btygrd/image/upload/v1550146399/resources/SELL.jpg",
                   "action_type" : "template",
                  "subtitle":"¿No tienes mojitos en tu cuenta? No hay problema, compra 50 mojito💲 por 5€",
                  "default_action": {
                    "type": "web_url",
                    "url": "https://www.facebook.com/AlohaPeopleClub",
                    "webview_height_ratio": "tall"
                  },
                  "buttons":[
                    {
                      "type":"web_url",
                      "title":"GANA 50€",
                      "url":"{{{paypal_url}}}",
                    "webview_height_ratio": "tall"
                    },
                    {
                      "type":"web_url",
                      "title":"COMPRA 50 MOJITO💲",
                      "url":"{{{stripe_url}}}",
                      "webview_height_ratio": "tall"
                    }       
                  ]      
              },
              {
                "title" : "Comparte ALOHA por Messenger, Facebook o WhatsApp y gana mojito💲",
                "subtitle" : "Invita hasta 10 amigos y gana 10🍸 por cada uno que se una por primera vez",
                "image_url" : "https://res.cloudinary.com/btygrd/image/upload/v1550146400/resources/SHARE.jpg",
                "action_type" : "template",
                "buttons": 
                [
                  {
                    "type": "element_share",
                    "share_contents": {
                      "attachment": {
                        "type": "template",
                        "payload": {
                          "template_type": "generic",
                          "elements": 
                          [
                            {
                              "title":"¿Nos vemos en Aloha People Club?",
                              "subtitle":"Te he dejado 50 mojito💲 en tu cuenta para que conozcas a gente",
                              "image_url":"https://res.cloudinary.com/btygrd/image/upload/v1537529745/resources/Aloha_icon.jpg",
                              "buttons":
                              [
                                {
                                  "type":"web_url",
                                  "title":"MESSENGER",
                                  "url":"{{{msn_branch_url}}}",
                                  "webview_height_ratio": "tall"
                                }
                              ]
                            }
                          ]
                        }
                      }
                    }
                  },
                 {
                      "type":"web_url",
                      "title":"FACEBOOK",
                      "url":"{{{fb_branch_url}}}",
                      "webview_height_ratio": "tall"
                  },
                 {
                      "type":"web_url",
                      "title":"WHATSAPP",
                      "url":"{{{wh_branch_url}}}",
                      "webview_height_ratio": "tall"
                  }       
                ]
              }
          ],
        "already_geolocated": 
          [
              {
                  "title":"{{first_name}}, tienes {{roses}} mojito💲, ¿te unes a la acción? 👇 TALK",
                  "image_url":"https://res.cloudinary.com/btygrd/image/upload/v1550146399/resources/TALK.jpg",
                   "action_type" : "template",
                  "subtitle":"Síguenos en Facebook para ser VIP en Aloha People Club 🥇",
                  "default_action": {
                    "type": "web_url",
                    "url": "https://www.facebook.com/AlohaPeopleClub",
                    "webview_height_ratio": "tall"
                  },
                  "buttons":[
                    {
                      "type":"postback",
                      "title":"TALK",
                      "payload":"TALK"
                    },
                                        {
                      "type":"web_url",
                      "title":"SIGUENOS EN FB",
                      "url":"https://www.facebook.com/AlohaPeopleClub/",
                      "webview_height_ratio": "tall"
                    },
                    {
                      "type":"web_url",
                      "title":"ESCUCHA AL DJ",
                      "url":"https://open.spotify.com/user/henessy.purewhite/playlist/3jfIZ3Ep7hoakj9pzKDthd?si=CFVFtCZ6TUGWfxTOSgmYhg",
                      "webview_height_ratio": "tall"
                    }
                  ]      
              },
              {
                  "title":"Fomentamos el consumo responsable, si tienes 500 mojito💲 cámbialos por 50€",
                  "image_url":"https://res.cloudinary.com/btygrd/image/upload/v1550146399/resources/SELL.jpg",
                   "action_type" : "template",
                  "subtitle":"¿No tienes mojitos en tu cuenta? No hay problema, compra 50 mojito💲 por 5€",
                  "default_action": {
                    "type": "web_url",
                    "url": "https://www.facebook.com/AlohaPeopleClub",
                    "webview_height_ratio": "tall"
                  },
                  "buttons":[
                    {
                      "type":"web_url",
                      "title":"GANA 50€",
                      "url":"{{{paypal_url}}}",
                    "webview_height_ratio": "tall"
                    },
                    {
                      "type":"web_url",
                      "title":"COMPRA 50 MOJITO💲",
                      "url":"{{{stripe_url}}}",
                      "webview_height_ratio": "tall"
                    }        
                  ]      
              },
              {
                "title" : "Comparte ALOHA por Messenger, Facebook o WhatsApp y gana mojito💲",
                "subtitle" : "Invita hasta 10 amigos y gana 10🍸 por cada uno que se una por primera vez",
                "image_url" : "https://res.cloudinary.com/btygrd/image/upload/v1550146400/resources/SHARE.jpg",
                "action_type" : "template",
                "buttons": 
                [
                  {
                    "type": "element_share",
                    "share_contents": {
                      "attachment": {
                        "type": "template",
                        "payload": {
                          "template_type": "generic",
                          "elements": 
                          [
                            {
                              "title":"¿Nos vemos en Aloha People Club?",
                              "subtitle":"Te he dejado 50 mojito💲 en tu cuenta para que conozcas a gente",
                              "image_url":"https://res.cloudinary.com/btygrd/image/upload/v1537529745/resources/Aloha_icon.jpg",
                              "buttons":
                              [
                                {
                                  "type":"web_url",
                                  "title":"MESSENGER",
                                  "url":"{{{msn_branch_url}}}"
                                }
                              ]
                            }
                          ]
                        }
                      }
                    }
                  },
                 {
                      "type":"web_url",
                      "title":"FACEBOOK",
                      "url":"{{{fb_branch_url}}}",
                      "webview_height_ratio": "tall"
                  },
                 {
                      "type":"web_url",
                      "title":"WHATSAPP",
                      "url":"{{{wh_branch_url}}}",
                      "webview_height_ratio": "tall"
                  }        
                ]
              }
          ]
        }
    }
}
