{
  "your_girl_is_gone_choose_another": {
    "es": "💁🏽‍♀️ LOLA: Parece que la chica que has elegido está ocupada. ¡Vuelve a seleccionar otra!",
    "en": "💁🏽‍♀️ LOLA: Looks like the girl you picked is busy. Pick another one!",
    "pt": "💁🏽‍♀️ LOLA: Parece que a rapariga que escolheste está ocupada. Escolhe outra!"
  },
  "warning_ban_message" : {
    "es": "💁🏽‍♀️ LOLA: ⚠ Por motivos de seguridad no está permitido intercambiar datos de contacto, como WhatsApp o Facebook, podría suponer la expulsión como miembros de Aloha People Club",
    "en": "💁🏽‍♀️ LOLA: ⚠ For security reasons it is not allowed to exchange contact data, such as WhatsApp or Facebook, could entail expulsion as members of Aloha People Club",
    "pt": "💁🏽‍♀️ LOLA: ⚠ Por razões de segurança, não é permitido trocar dados de contato, como o WhatsApp ou o Facebook, pode resultar em expulsão como membros do Aloha People Club." 
 },    

 "not_enough_credit_to_talk" : {
    "es": "💁🏽‍♀️ LOLA: No puedes comenzar una conversación ya que no tienes suficientes MOJITOS🍸. El número mínimo para hablar es de {{roses}} MOJITOS🍸",
    "en": "💁🏽‍♀️ LOLA: You can not start a conversation since you do not have enough MOJITOS🍸. The minimum number to speak is {{roses}} MOJITOS🍸",
    "pt": "💁🏽‍♀️ LOLA: Você não pode iniciar uma conversa desde que você não tem MOJITOS🍸 suficientes. O número mínimo para falar é {{roses}} MOJITOS🍸" 
 },    
 "buy_mojitos_slide_title": {
    "es": "💁🏽‍♀️ LOLA: Compra 40 MOJITOS🍸 por solo 9.95€",
    "en": "💁🏽‍♀️ LOLA: Buy 40 MOJITOS🍸 for only € 9.95",
    "pt": "💁🏽‍♀️ LOLA: Compre 40 MOJITOS🍸 por apenas 9.95€"
 },
   "buy_mojitos_slide_subtitle": {
    "es": "",
    "en": "",
    "pt": ""
   },
  "buy_mojitos_slide_button": {
    "es": "COMPRA 40🍸",
    "en": "BUY 40🍸",
    "pt": "COMPRE 40🍸"
   },
  "you_have_enabled_open_notifications" : {
      "es": "💁🏽‍♀️ LOLA: Fantástico, ya te he reservado una mesa VIP, te aviso cuando empiece la fiesta 😃",
      "en": "💁🏽‍♀️ LOLA: Cool, I've already reserved a VIP table, I'll let you know when the party starts 😃",
      "pt" : "💁🏽‍♀️ LOLA: Fantástico, Eu já reservei uma mesa VIP, avisarei quando a festa começar 😃"
  },
  "want_open_notifications": {
      "es" : "💁🏽‍♀️ LOLA: ¿Quieres que te reserve gratis una mesa VIP y te avise cuando estemos abiertos? 📬",
      "en" : "💁🏽‍♀️ LOLA: Do you want me to book a free VIP table and notify you when we are open? 📬",
      "pt" : "💁🏽‍♀️ LOLA: Você quer que eu reserve uma mesa vip gratuita e notificá-lo quando estivermos abertos? 📬"
  },
  "idle_message": {
      "es" :{
      	"male": "💁🏽‍♀️ LOLA:Para empezar a hablar, elige a tu CHICA o pide una cita a ciegas 💑",
      	"female": "💁🏽‍♀️ LOLA: Para empezar a hablar, pulsa TALK ❤️ y te presentaré a un CHICO 💑 \n\n👇 ¿Sabes cómo ganar dinero 💰 en Aloha?\n\nhttps://alohafaq.carrd.co/#esfaq"},
      "en" :{
      	"male": "💁🏽‍♀️ LOLA: You are still not connected to anybody 🤔, press TALK and I will introduce you to a random GIRL 💑",
      	"female": "💁🏽‍♀️ LOLA: You are still not connected to anybody 🤔, press TALK, I will introduce you to a random BOY 💑\n\n💁🏽‍♀️ LOLA: Do you know how to make money 💰 while having fun? ℹ\n\nhttps://alohafaq.carrd.co/#enfaq"},
      "pt" :{
      	"male": "💁🏽‍♀️ LOLA:Você ainda não está conectado 💬 com ninguém 🤔, clique em TALK e eu o apresentarei a uma GAROTA aleatória 💑",
      	"female": "💁🏽‍♀️ LOLA: Você ainda não está conectado 💬 com ninguém 🤔, pressione TALK e eu vou apresentá-lo a um MENINO ao acaso. 💑\n\n💁🏽‍♀️ LOLA: Você sabe como ganhar dinheiro 💰 enquanto se diverte? ℹ\n\nhttps://alohafaq.carrd.co/#ptfaq"}
  },
  "champagne_reward_message" : {
      "es" :{
      	"male": "💁🏽‍♀️ LOLA: Tu cita te ha invitado a una botella de Champagne Moët & Chandon🍾",
      	"female": "💁🏽‍♀️ LOLA: Tu cita te ha invitado a una botella de Champagne Moët & Chandon🍾 y has ganado {{roses}} MOJITOS🍸 "},
      "en" :{
      	"male": "💁🏽‍♀️ LOLA: Your date has invited you to a bottle of Moët & Chandon Champagne🍾",
      	"female": "💁🏽‍♀️ LOLA: Your date has invited you to a bottle of Moët & Chandon Champagne🍾 and you've won {{roses}} MOJITOS🍸 "},
      "pt" :{
      	"male": "💁🏽‍♀️ LOLA: Sua companhia convidou você para uma garrafa de Moët & Chandon Champagne🍾",
      	"female": "💁🏽‍♀️ LOLA: Sua companhia convidou você para uma garrafa de Moët & Chandon Champagne🍾 e você ganhou {{roses}} MOJITOS🍸 "}   
  }, 
  "champagne_sent_message" : {
       "es": "💁🏽‍♀️ LOLA: Has invitado a una botella de  Moët & Chandon🍾 a tu cita y le hemos añadido {{roses}} MOJITOS🍸 en su cuenta",
      "en" :{
      	"male": "💁🏽‍♀️ LOLA: You have invited a bottle of Moët & Chandon🍾 to your date and we have added {{roses}} MOJITOS🍸 in her account",
      	"female": "💁🏽‍♀️ LOLA: You have invited a bottle of Moët & Chandon🍾 to your date and we have added {{roses}} MOJITOS🍸 in his account"},
       "pt": "💁🏽‍♀️ LOLA: Você convidou uma garrafa de Moët & Chandon🍾 para a sua companhia e nós adicionamos {{roses}} MOJITOS🍸 à sua conta"
  }, 
    "media_costs_title": { 
        "es": "Invita a tu cita a {{roses}} MOJITOS🍸 y podrás ver lo que te ha enviado",
        "en": "Invite your date to {{roses}} MOJITOS🍸 and you will be able to see what she has sent you",
        "pt": "Convide sua consulta para {{roses}} MOJITOS🍸 e você poderá ver o que ele lhe enviou."
  },
  "media_costs_subtitle": { 
        "es": "💁🏽‍♀️ LOLA: Recuerda que puedes pedir fotos o videos para conoceros mejor 💞",
        "en": "💁🏽‍♀️ LOLA: Remember that you can ask for photos or videos to get to know you better 💞",
        "pt": "💁🏽‍♀️ LOLA: Lembre-se que você pode pedir fotos ou vídeos para conhecê-lo melhor 💞"
  },
      "buy_mojitos_pic_text": {
    "es": "💁🏽‍♀️ LOLA: Compra 40 MOJITOS🍸 por solo 9,95€",
    "en": "💁🏽‍♀️ LOLA: Buy 40 MOJITOS🍸 for only € 9,95",
    "pt": "💁🏽‍♀️ LOLA: Compre 40 MOJITOS🍸 por apenas € 9,95"
  },
  "noReferralWelcomeMessage":{
    "es":{
      	"male": "Hola {{name}}, me llamo 💁🏽‍♀️ LOLA y soy tu camarera. Bienvenido a Aloha People Club!! 🎉",
      	"female": "Hola {{name}}, me llamo 💁🏽‍♀️ LOLA y soy tu camarera. Bienvenida a Aloha People Club!! 🎉"
      	},
    "en": "Hi {{name}}, my name is 💁🏽‍♀️ LOLA and I´m your waitress. Welcome to Aloha People Club!! 🎉",
    "pt":{
    	"male": "Ola {{name}}, meu nome é 💁🏽‍♀️ LOLA e sou sua garçonete. Bem-vindo ao Aloha People Club!! 🎉",
    	"female": "Ola {{name}}, meu nome é 💁🏽‍♀️ LOLA e sou sua garçonete. Bem-vinda ao Aloha People Club!! 🎉"
    	}
  },
  "youHaveReceivedRosesByReferee": {
    "es": "💁🏽‍♀️ LOLA: {{referee_name}} se ha unido a Aloha por tu invitación y te hemos añadido en tu cuenta {{referral_reward}} MOJITOS🍸",
    "en": "💁🏽‍♀️ LOLA: {{referee_name}} has joined to Aloha invited by you and we have credited {{referral_reward}} MOJITOS🍸 to your balance",
    "pt": "💁🏽‍♀️ LOLA: {{referee_name}} entrou para o Aloha convidado por você e nós creditamos o {{referral_reward}} MOJITOS🍸 no seu saldo"
  },
  "connectionEstablished":{
    "es":{
        "male": "💁🏽‍♀️ LOLA: Te presento a {{first_name}}, tienes 15 minutos para pedirle fotos y videos o lo que surja 😜. Si quieres terminar la cita, escribe o pulsa BYE 👋 \n\n💁🏽‍♀️ LOLA: Y si aparece la magia, desde el menú inferior, puedes invitar a tu cita a una botella de Champagne 🍾 por 2 MOJITOS🍸\n\nℹ Para hacer de Aloha un sitio seguro ☯, no compartas ni solicites datos personales (Facebook, WhatsApp), podrás ser expulsado y perderás tus MOJITOS🍸",
      	"female": "💁🏽‍♀️ LOLA: Te presento a {{first_name}} 🙌, tienes 15 minutos para ganar MOJITOS🍸 enviando fotos y videos o pidiendo que te invite a Champagne 🍾. Si quieres terminar la cita, escribe o pulsa BYE 👋 \n\nℹ Para hacer de Aloha un sitio seguro ☯, no compartas ni solicites datos personales (Facebook, WhatsApp), podrás ser expulsada y perderás tus MOJITOS🍸"
      	},
    "en":{
    	"male": "💁🏽‍♀️ LOLA: Let me introduce you to {{first_name}} 🙌, we have reserved a table in the VIP area 💑, you have 15 minutes to talk ⏳. If you want to end the date write or press BYE 👋\n\n💁🏽‍♀️ LOLA: From the bottom menu, if the magic appears 😍 , you can invite her to a bottle of Champagne🍾 and the amount will go directly to her Aloha account",
    	"female": "💁🏽‍♀️ LOLA: Let me introduce you to {{first_name}} 🙌, we have reserved a table in the VIP area 💑, you have 15 minutes to talk ⏳. If you want to end the date write or press BYE 👋\n\n💁🏽‍♀️ LOLA: To make Aloha a safe site ☯, do not share personal companhia (Facebook, WhatsApp), you can be banned and you will lose your MOJITOS🍸"
    	},
    "pt": {
    	"male": "💁🏽‍♀️ LOLA: Deixe-me apresentar o {{first_name}} 🙌, reservamos uma mesa na área VIP 💑 e você tem 15 minutos para falar ⏳\n\nSe você quiser terminar a companhia, escreva ou pressione BYE 👋\n\n💁🏽‍♀️ LOLA: Sobre el menú inferior, si sur la magia 😍, podrás invitarle a una botella de Champagne e a importe directamente a su cuenta de Aloha",
    	"female": "💁🏽‍♀️ LOLA: Deixe-me apresentar o {{first_name}} 🙌, reservamos uma mesa na área VIP 💑 e você tem 15 minutos para falar ⏳. Se você quiser terminar a companhia, escreva ou pressione BYE 👋\n\n💁🏽‍♀️ LOLA: Para tornar o Aloha um site seguro ☯, não compartilhe dados pessoais (Facebook, WhatsApp), você pode ser expulso e perderá seu MOJITOS🍸"
    	}
  },
  "searching_chat_partners":{
     "es":{
        "male": "💁🏽‍♀️ LOLA: Te estoy buscando CHICAS 👩👩🏽‍🦱 en todo el mundo, dame un minuto",
        "female": "💁🏽‍♀️ LOLA: Te estoy buscando CHICOS 👨‍🦰 en todo el mundo 🇺🇸🇪🇸🇩🇪, dame un minuto"
    	},
    "en":{
    	"male": "💁🏽‍♀️ LOLA: I'm looking for you 🕵️♀️ GIRLS 👩👩🏽‍🦱👩🏻‍🦰👱🏾‍♀️👩🏻 all over the world 🇧🇷🇨🇴🇷🇺🇯🇵🇺🇸, give me a minute ⏱",
    	"female": "💁🏽‍♀️ LOLA: I'm looking for you 🕵️♀️ GUYS 👱🏻‍♂️👨🏽‍🦱🧔🏻👱🏽‍♂️️ all over the world 🇺🇸🇪🇸🇩🇪🇮🇹🇯🇵, give me a minute ⏱"
    	},
    "pt": {
    	"male": "💁🏽‍♀️ LOLA: Eu estou procurando por você 🕵️♀️ MENINAS 👩👩🏽‍🦱👩🏻‍🦰👱🏾‍♀️👩🏻 em todo o mundo 🇧🇷🇨🇴🇷🇺🇯🇵🇺🇸, me dê um minuto ⏱",
    	"female": "💁🏽‍♀️ LOLA: Eu estou procurando por você 🕵️♀️ RAPAZES 👱🏻‍♂️👨🏽‍🦱🧔🏻👱🏽‍♂️️ em todo o mundo 🇺🇸🇪🇸🇩🇪🇮🇹🇯🇵, me dê um minuto ⏱"
    	}
  },
  "you_have_finished_the_chat":{
    "es":{
        "male": "💁🏽‍♀️ LOLA: Has finalizado tu cita rápida",
      	"female": "💁🏽‍♀️ LOLA: Has finalizado tu cita rápida"
      	},
    "en":{
    	"male": "💁🏽‍♀️ LOLA: You have finished your speed-date",
    	"female": "💁🏽‍♀️ LOLA: You have finished your speed-date"
    	},
    "pt": {
    	"male": "💁🏽‍♀️ LOLA: Você terminou sua companhia rápida",
    	"female": "💁🏽‍♀️ LOLA: Você terminou sua companhia rápida"
    	}
  },
  "the_other_part_have_finished_the_chat":{
    "es":{
        "male": "💁🏽‍♀️ LOLA: Upps, tu cita se ha tenido que ir....",
      	"female": "💁🏽‍♀️ LOLA: Upps, tu cita se ha tenido que ir...."
      	},
    "en":{
    	"male": "💁🏽‍♀️ LOLA: Upps, your date has had to go ...",
    	"female": "💁🏽‍♀️ LOLA: Upps, your date has had to go ..."
    	},
    "pt": {
    	"male": "💁🏽‍♀️ LOLA: Ups, seu companhia teve que ir ...",
    	"female": "💁🏽‍♀️ LOLA: Ups, seu companhia teve que ir ..."
    	}
  },
  "you_dont_have_enough_credit_champagne":{
    "es":"💁🏽‍♀️ LOLA: No tienes suficientes MOJITOS🍸 para invitar a Champagne, necesitas 2🍸\n\n💁🏽‍♀️ LOLA: Añade MOJITOS🍸 a tu cuenta para poder invitar 🍾",
    "en":"💁🏽‍♀️ LOLA: You do not have enough MOJITOS🍸 to invite Champagne, you need 2🍸\n\n💁🏽‍♀️ LOLA: Add MOJITOS🍸 to your account to be able to invite 🍾",
    "pt":"💁🏽‍♀️ LOLA: Você não tem suficiente MOJITOS🍸 para convidar Champagne, você precisa de 2🍸\n\n💁🏽‍♀️ LOLA: Adicione MOJITOS🍸 à sua conta para poder convidar 🍾"
  },
  "you_dont_have_enough_credit":{
    "es":"💁🏽‍♀️ LOLA: Tu cita te ha mandado un contenido 🎁, pero no tienes suficientes MOJITOS🍸 para invitarla y verlo 👀\n\n💁🏽‍♀️ LOLA: Añade MOJITOS🍸 a tu cuenta para recibirlo 📬",
    "en":"💁🏽‍♀️ LOLA: Your date has sent you a content 🎁, but you do not have enough MOJITOS🍸 to see it 👀\n\n💁🏽‍♀️ LOLA: Add MOJITOS🍸 to your account to receive it 📬",
    "pt":"💁🏽‍♀️ LOLA: Sua companhia lhe enviou um conteúdo 🎁, mas você não tem MOJITOS🍸 suficiente para vê-lo 👀\n\n💁🏽‍♀️ LOLA: Adicione MOJITOS🍸 à sua conta para recebê-lo 📬"
  },
  "congratulations_roses_file_viewed":{
    "es":{
        "male": "💁🏽‍♀️ LOLA: Has ganado {{roses}} MOJITOS🍸",
      	"female": "💁🏽‍♀️ LOLA: Has ganado {{roses}} MOJITOS🍸"
      	},
    "en":{
        "male": "💁🏽‍♀️ LOLA: You have won {{roses}} MOJITOS🍸",
      	"female": "💁🏽‍♀️ LOLA: You have won {{roses}} MOJITOS🍸"    	
      	},
    "pt": {
        "male": "💁🏽‍♀️ LOLA: Você ganhou {{roses}} MOJITOS🍸",
      	"female": "💁🏽‍♀️ LOLA: Você ganhou {{roses}} MOJITOS🍸"    	
      	}
  },
  "not_enough_credit": {
    "es": "💁🏽‍♀️ LOLA: No tienes suficiente MOJITOS🍸 para canjearlos. El mínimo son 250, gana más MOJITOS🍸 y recibe $50 USD",
    "en": "💁🏽‍♀️ LOLA: You don't have enough MOJITOS🍸 to exchange. Minimum are 250, try to win more MOJITOS🍸 and receive $50 USD",
    "pt": "💁🏽‍♀️ LOLA: Você não tem MOJITOS🍸 suficiente para trocar. Mínimo é 250, tente ganhar mais MOJITOS🍸 e receba $50 USD"
  },
  "you_have_recharged" : {
    "es": "💁🏽‍♀️ LOLA: Has añadido {{roses}} MOJITOS🍸 en tu cuenta",
    "en": "💁🏽‍♀️ LOLA: You have added {{roses}} MOJITOS🍸 in your account",
    "pt": "💁🏽‍♀️ LOLA: Você adicionou {{roses}} MOJITOS🍸 à sua conta"
  },
   "you_are_talking_with_other_country": {
      "es": "💁🏽‍♀️ LOLA: Habláis distinto idioma, no hay problema, yo me encargo 😉\n\n💁🏽‍♀️ LOLA: Escribe palabras completas para que pueda traducir 🇪🇦🇭🇲🇸🇯🇯🇵🇮🇹",
      "en": "💁🏽‍♀️ LOLA: You speak different language but I'll take care of it 😉\n\n💁🏽‍♀️ LOLA: Write complete words so I can translate 🇪🇦🇭🇲🇸🇯🇯🇵🇮🇹",
      "pt": "💁🏽‍♀️ LOLA: Você fala uma língua diferente, mas eu vou cuidar disso 😉\n\n💁🏽‍♀️ LOLA: Escreva palavras completas para que eu possa traduzir 🇪🇦🇭🇲🇸🇯🇯🇵🇮🇹"
  },
  "chat_finished_by_system": {
    "es": "💁🏽‍♀️ LOLA: Parece que no ha surgido la magia 😔. Pulsa TALK y te buscaré otra cita rápida ⏳",
    "en": "💁🏽‍♀️ LOLA: It seems that magic has not arisen 😔. Press TALK and I'll find you another speed-dating ⏳",
    "pt": "💁🏽‍♀️ LOLA: Parece que a magia não surgiu 😔. Pressione TALK e eu vou encontrar outro companhia rápido ⏳"
  },
  "bar_will_open_at" : {
    "es" :{
      	"male":"💁🏽‍♀️ LOLA: Hoy estamos de obras en Aloha, abriremos en breve",
      	"female":"💁🏽‍♀️ LOLA: Hoy estamos de obras en Aloha, abriremos en breve"
      	},
    "en" :{
     	"male":"💁🏽‍♀️ LOLA: Hoy estamos de obras en Aloha, abriremos en breve",
      	"female":"💁🏽‍♀️ LOLA: Hoy estamos de obras en Aloha, abriremos en breve"
      	},
    "pt" :{
     	"male":"💁🏽‍♀️ LOLA: Hoy estamos de obras en Aloha, abriremos en breve",
      	"female":"💁🏽‍♀️ LOLA: Hoy estamos de obras en Aloha, abriremos en breve"
      	}
  },
    "you_have_expanded_your_chat_session": {
    "es": "💁🏽‍♀️ LOLA: Parece que la cosa funciona ¿no? 😜 Tenéis 15 minutos más en la zona VIP. Aún tienes {{roses}} MOJITOS🍸",
    "en": "💁🏽‍♀️ LOLA: Looks like it's working, right? 😜 You have 15 more minutes in the VIP area. You still have {{roses}} MOJITOS🍸",
    "pt": "💁🏽‍♀️ LOLA: Parece que está a funcionar, certo? 😜 Você tem mais 15 minutos na área VIP. Você ainda tem {{roses}} MOJITOS🍸"
  },
  "your_chat_session_has_been_expanded": {
    "es":{
        "male": ["💁🏽‍♀️ LOLA: Parece que ha surgido la magia 🎇","💁🏽‍♀️ LOLA: ¡Enhorabuena! Tu cita te ha invitado a 15 minutos más en la zona VIP del Aloha"],
      	"female": ["💁🏽‍♀️ LOLA: Parece que ha surgido la magia 🎇","💁🏽‍♀️ LOLA: ¡Enhorabuena! Tu cita te ha invitado a 15 minutos más en la zona VIP del Aloha"]
      	},
    "en":{
        "male": ["💁🏽‍♀️ LOLA: It seems that magic has arisen 🎇","💁🏽‍♀️ LOLA: Congratulations!! Your date has invited you to 15 minutes more in the VIP area of Aloha"],
      	"female": ["💁🏽‍♀️ LOLA: It seems that magic has arisen 🎇","💁🏽‍♀️ LOLA: Congratulations!! Your date has invited you to 15 minutes more in the VIP area of Aloha"]    	
      	},
    "pt": {
        "male": ["💁🏽‍♀️ LOLA: Parece que a magia surgiu 🎇","💁🏽‍♀️ LOLA: Parabéns! Seu companhia convidou você a 15 minutos a mais na área VIP do Aloha"],
      	"female": ["💁🏽‍♀️ LOLA: Parece que a magia surgiu 🎇","💁🏽‍♀️ LOLA: Parabéns! Seu companhia convidou você a 15 minutos a mais na área VIP do Aloha"]    	
      	}
  },
  "open_bar_notifications_disabled" : {
    "es": ["💁🏽‍♀️ LOLA: Avisos desactivados 🛑, no te enviaremos notificaciones cuando abramos","💁🏽‍♀️ LOLA: Puedes volver a activarlas seleccionando OK 👍 más adelante"],
    "en": ["💁🏽‍♀️ LOLA: Alerts disabled 🛑, we won't send you notifications when we open","💁🏽‍♀️ LOLA: You can reactivate them by selecting OK 👍 later."],
    "pt": ["💁🏽‍♀️ LOLA: Avisos desativados 🛑, não lhe enviaremos notificações quando abrirmos","💁🏽‍♀️ LOLA: Você pode reativá-los selecionando OK 👍 mais tarde"]
  },
    "menuMessage":{
    "es": "💁🏽‍♀️ LOLA: {{name}}, aun tienes {{roses}} MOJITOS🍸 en tu cuenta, ¿quieres hablar con otra persona?",
    "en": "💁🏽‍♀️ LOLA: {{name}},you still have {{roses}} MOJITOS🍸 in your balance, do you want to talk to someone else?",
    "pt": "💁🏽‍♀️ LOLA: {{name}}, você ainda tem {{roses}} MOJITOS🍸 na sua conta, quer falar com outra pessoa?"
  },
    "share_message":{
    "es": ["💁🏽‍♀️ LOLA: Como miembro VIP de Aloha ahora puedes invitar a tus amigos. Pulsa en la imágen para compartir ↗","💁🏽‍♀️ LOLA: Por cada uno de tus amigos que que se unan a Aloha People Club recibirás 4 MOJITOS🍸 en tu cuenta 😉"],
    "en": ["💁🏽‍♀️ LOLA: As a VIP member of Aloha now you can invite to your friends. Click on the image to share ↗", "💁🏽‍♀️ LOLA: For each of your friends who join Aloha People Club you will receive 4 MOJITOS🍸 in your balance 😉"],
    "pt": ["💁🏽‍♀️ LOLA: Como membro VIP da Aloha, agora você pode convidar seus amigos. Clique na imagem para compartilhar ↗", "💁🏽‍♀️ LOLA: Para cada um dos seus amigos que se juntar ao Aloha People Club, você receberá 4 MOJITOS🍸 😉"]
  },
  "referralWelcomeMessage":{
    "es": "💁🏽‍♀️ LOLA: Hola {{name}}, bienvenido al Aloha People Club 🏝. {{referral_name}} te ha invitado a unirte y te ha dejado {{referee_reward}} MOJITOS🍸 en tu cuenta para empezar a conocer gente",
    "en": "💁🏽‍♀️ LOLA: Hi {{name}}, welcome to Aloha People Club 🏝. Your friend {{referral_name}} has invited you to join and now you have {{referee_reward}} MOJITOS🍸 to start meeting people",
    "pt": "💁🏽‍♀️ LOLA: Olá {{name}}, bem-vindo ao Aloha People Club 🏝. Seu amigo {{referral_name}} convidou você para participar e agora você tem {{referee_reward}} MOJITOS🍸 para começar a conhecer pessoas"
  },
    "you_got_image":{
    "es":"",
    "en":""
  },
  "you_got_video":{
    "es":"",
    "en":""
  },
  "you_got_audio":{
    "es":"",
    "en":""
  },
  "you_got_location":{
    "es":"",
    "en":""
  },
  "you_got_gif":{
    "es":"",
    "en":""
  },
    "roses_consumed_by_viewing_file":{
    "es":"",
    "en":"",
    "pt":""
  },
    "branch_share_links_title":{
    "es":"¿Quedamos en Aloha People Club? 🏝",
    "en":"Do we meet at Aloha People Club? 🏝",
    "pt":"Nós nos encontramos no Aloha People Club? 🏝"
  },
  "branch_share_links_description":{
    "es":"El primer BAR virtual de citas rápidas 💑 con gente de todo el mundo 🇮🇹🇯🇵🇺🇸🇧🇷🇪🇸🇩🇪",
    "en":"The first virtual BAR for speed-dating 💑 with people from all over the world 🇮🇹🇯🇵🇺🇸🇧🇷🇪🇸🇩🇪",
    "pt":"A primeira BAR virtual para companhias rápidos 💑 com pessoas de todo o mundo 🇮🇹🇯🇵🇺🇸🇧🇷🇪🇸🇩🇪"
  },
  "profile_messages":{
    "es":["Si deseas borrar tu cuenta, puedes hacerlo en cualquier momento",
      "Recuerda que al borrar la cuenta también se eliminarán los {{roses}} MOJITOS🍸  que has acumulado"
    ],
    "en":["If you want to delete your account, you can do it at any time",
      "Remeber that when you delete the account you will loose the {{roses}} MOJITOS🍸  that you have collected"
    ]
  },
  "delete_profile_or_exit": {
    "es": "Pulsa o escribe DELETE para borrar o EXIT para ir al menú sin borrar la cuenta",
    "en": "Press or write DELETE to delete your account or EXIT for going out to menu without delete"
  },
  "your_user_has_been_removed": {
    "es": "Tu usuario y datos personales han sido borrados de nuestra base de datos. ¡Esperamos verte de vuelta algún por nuestro bar día!",
    "en": "Your user and personal information has been removed from our companhiabase. We hope to see you again in our club someday!",
    "pt": "Seu usuário e suas informações pessoais foram removidos do nosso banco de dados. Esperamos vê-lo novamente em nosso clube um dia"
  },
    "buy_MOJITOS🍸_text": {
    "es": "💁🏽‍♀️ LOLA: No tenes MOJITOS🍸 ? No hay problema, compra MOJITOS🍸 y accede a todo el contenido",
    "en": "💁🏽‍♀️ LOLA: No MOJITOS🍸 ? No problem, buy MOJITOS🍸 and access all the content",
    "pt": "💁🏽‍♀️ LOLA: Não MOJITOS🍸? Não tem problema, compre MOJITOS🍸 e acesse todo o conteúdo"
  },
  "sell_MOJITOS🍸_text": {
    "es": ["💁🏽‍♀️ LOLA: Si tienes más de 250 MOJITOS🍸 los puedes cambiar por 50 dólares","💁🏽‍♀️ LOLA: Pídeme por Paypal 50€ a paypal@alohapeople.club, indicando la referencia {{User_ID}} en la solicitud"],
    "en": ["💁🏽‍♀️ LOLA: If you have more than 250 MOJITOS🍸 you can exchange them for USD 50","💁🏽‍♀️ LOLA: Request me 50€ using Paypal to paypal@alohapeople.club, using the reference {{User_ID}} in the request"],
    "pt": ["💁🏽‍♀️ LOLA: Se você tem mais de 250 MOJITOS🍸 você pode trocá-los por USD 50", "💁🏽‍♀️ LOLA: Solicite-me 50 € usando o Paypal para paypal@alohapeople.club, usando a referência {{User_ID}} na solicitação"]
  },
    "spotify_list_msg_1": {
    "es": "💁🏽‍♀️ LOLA: Escucha lo que está poniendo ahora el DJ 📻",
    "en": "💁🏽‍♀️ LOLA: Listen what is playing the DJ 📻",
    "pt": "💁🏽‍♀️ LOLA: Ouça o que está tocando o DJ 📻"
  },
  "spotify_list_msg_2": {
    "es": "💁🏽‍♀️ LOLA: Puedes escuchar nuestra Playlist mientras hablas con la gente 💃🕺",
    "en": "💁🏽‍♀️ LOLA: You can listen our Playlist while talking with people 💃🕺",
    "pt": "💁🏽‍♀️ LOLA: Você pode ouvir nossa playlist enquanto conversa com as pessoas 💃🕺"
  },
  "enter_to_messenger_text": {
    "es": "Entrar a Aloha People Club",
    "en": "Enter to Aloha People Club",
    "pt": "Entre para Aloha People Club"
  },
  "enter_to_aloha_card_text": {
    "es": "",
    "en": "",
    "pt": ""
  },
  "on_boarding2": {
      "es" : "",
      "en" : "",
      "pt": ""
  },
  "on_boarding2_buttons" : {
      "es" :   ["TALK", "AHORA NO"],
      "en" :   ["TALK", "NOT NOW"],
      "pt" :   ["TALK", "AGORA NÃO"]
  },
  "sell_MOJITOS🍸_pic_text": {
    "es": "💁🏽‍♀️ LOLA: Puedes cambiar 250 MOJITOS🍸 por USD 50",
    "en": "💁🏽‍♀️ LOLA: You can exchange 250 MOJITOS🍸 for USD 50",
    "pt": "💁🏽‍♀️ LOLA: Você pode trocar 250 MOJITOS🍸 por USD 50"
  }
}